5.10 EXERCISE 3 | UVA Health Sciences Library Workshops
…
            UVA Health Sciences Library Workshops

5.10 EXERCISE 3

Display the data where the biological process the gene plays a role in (the bp variable) is “leucine biosynthesis” (be careful with spelling) and the limiting nutrient is Leucine. (Answer should return a 24-by-7 data frame – 4 genes \(\times\) 6 growth rates).

Display the data where the observation had high expression (in the top 1% of expressed genes). Hint: see ?quantile and try quantile(clean$expression, probs=.99) to see the expression value which is higher than 99% of all the data, then filter() based on that. Try piping your answer into the View() function so you can see the whole thing. What does it look like those genes are doing? Answer should return a 1971-by-7 data frame.

Can we use a regex and fuzzy matching to find leucine in the nutrient and bp columns?

clean %>% 
  filter(str_detect(nutrient, "Leu") & str_detect(bp, "[Ll]eu"))

## # A tibble: 588 x 7
##    symbol systematic_name nutrient  rate expression bp          mf         
##    <chr>  <chr>           <chr>    <dbl>      <dbl> <chr>       <chr>      
##  1 MLP2   YIL149C         Leucine   0.05      -0.2  mRNA-nucle… ribonucleo…
##  2 KAP95  YLR347C         Leucine   0.05      -0.67 protein-nu… protein ca…
##  3 SOL1   YNR034W         Leucine   0.05      -0.3  tRNA-nucle… molecular …
##  4 SRM1   YGL097W         Leucine   0.05      -0.24 rRNA-nucle… signal tra…
##  5 NOG1   YPL093W         Leucine   0.05      -0.41 ribosome-n… GTPase act…
##  6 NPL3   YDR432W         Leucine   0.05      -0.95 mRNA-nucle… mRNA bindi…
##  7 NUP42  YDR192C         Leucine   0.05      -0.27 mRNA-nucle… structural…
##  8 LEU9   YOR108W         Leucine   0.05       0.44 leucine bi… 2-isopropy…
##  9 MEX67  YPL169C         Leucine   0.05      -0.15 mRNA-nucle… protein bi…
## 10 HRB1   YNL004W         Leucine   0.05      -0.34 poly(A)+ m… RNA binding
## # … with 578 more rows

leu is also part of nucleus so let’s go farther

clean %>% 
  filter(str_detect(nutrient, "Leu") & str_detect(bp, "[Ll]eucine"))

## # A tibble: 24 x 7
##    symbol systematic_name nutrient  rate expression bp        mf           
##    <chr>  <chr>           <chr>    <dbl>      <dbl> <chr>     <chr>        
##  1 LEU9   YOR108W         Leucine   0.05      0.44  leucine … 2-isopropylm…
##  2 LEU1   YGL009C         Leucine   0.05      3.84  leucine … 3-isopropylm…
##  3 LEU2   YCL018W         Leucine   0.05      1.54  leucine … 3-isopropylm…
##  4 LEU4   YNL104C         Leucine   0.05      1.94  leucine … 2-isopropylm…
##  5 LEU9   YOR108W         Leucine   0.1       0.570 leucine … 2-isopropylm…
##  6 LEU1   YGL009C         Leucine   0.1       3.36  leucine … 3-isopropylm…
##  7 LEU2   YCL018W         Leucine   0.1       1.23  leucine … 3-isopropylm…
##  8 LEU4   YNL104C         Leucine   0.1       1.71  leucine … 2-isopropylm…
##  9 LEU9   YOR108W         Leucine   0.15      0.46  leucine … 2-isopropylm…
## 10 LEU1   YGL009C         Leucine   0.15      3.24  leucine … 3-isopropylm…
## # … with 14 more rows
…
arrange()

summarize()

group_by()

5.10.1 arrange()

The arrange() function does what it sounds like. It takes a data frame or tbl and arranges (or sorts) by column(s) of interest. The first argument is the data, and subsequent arguments are columns to sort on. Use the desc() function to arrange by descending.

# arrange by gene symbol
clean %>%
  arrange(symbol)

## # A tibble: 198,430 x 7
##    symbol systematic_name nutrient  rate expression bp         mf          
##    <chr>  <chr>           <chr>    <dbl>      <dbl> <chr>      <chr>       
##  1 AAC1   YMR056C         Glucose   0.05       1.5  aerobic r… ATP:ADP ant…
##  2 AAC1   YMR056C         Glucose   0.1        1.54 aerobic r… ATP:ADP ant…
##  3 AAC1   YMR056C         Glucose   0.15       1.16 aerobic r… ATP:ADP ant…
##  4 AAC1   YMR056C         Glucose   0.2        1.04 aerobic r… ATP:ADP ant…
##  5 AAC1   YMR056C         Glucose   0.25       0.84 aerobic r… ATP:ADP ant…
##  6 AAC1   YMR056C         Glucose   0.3        0.01 aerobic r… ATP:ADP ant…
##  7 AAC1   YMR056C         Ammonia   0.05       0.8  aerobic r… ATP:ADP ant…
##  8 AAC1   YMR056C         Ammonia   0.1        1.47 aerobic r… ATP:ADP ant…
##  9 AAC1   YMR056C         Ammonia   0.15       0.97 aerobic r… ATP:ADP ant…
## 10 AAC1   YMR056C         Ammonia   0.2        0.76 aerobic r… ATP:ADP ant…
## # … with 198,420 more rows

# arrange by expression (default: increasing)
clean %>% 
  arrange(expression)

## # A tibble: 198,430 x 7
##    symbol systematic_name nutrient   rate expression bp        mf          
##    <chr>  <chr>           <chr>     <dbl>      <dbl> <chr>     <chr>       
##  1 SUL1   YBR294W         Phosphate  0.05      -6.5  sulfate … sulfate tra…
##  2 SUL1   YBR294W         Phosphate  0.1       -6.34 sulfate … sulfate tra…
##  3 ADH2   YMR303C         Phosphate  0.1       -6.15 fermenta… alcohol deh…
##  4 ADH2   YMR303C         Phosphate  0.3       -6.04 fermenta… alcohol deh…
##  5 ADH2   YMR303C         Phosphate  0.25      -5.89 fermenta… alcohol deh…
##  6 SUL1   YBR294W         Uracil     0.05      -5.55 sulfate … sulfate tra…
##  7 SFC1   YJR095W         Phosphate  0.2       -5.52 fumarate… succinate:f…
##  8 JEN1   YKL217W         Phosphate  0.3       -5.44 lactate … lactate tra…
##  9 MHT1   YLL062C         Phosphate  0.05      -5.36 sulfur a… homocystein…
## 10 SFC1   YJR095W         Phosphate  0.25      -5.35 fumarate… succinate:f…
## # … with 198,420 more rows

# arrange by decreasing expression
clean %>% 
  arrange(desc(expression))

## # A tibble: 198,430 x 7
##    symbol systematic_name nutrient   rate expression bp         mf         
##    <chr>  <chr>           <chr>     <dbl>      <dbl> <chr>      <chr>      
##  1 GAP1   YKR039W         Ammonia    0.05       6.64 amino aci… L-proline …
##  2 DAL5   YJR152W         Ammonia    0.05       6.64 allantoat… allantoate…
##  3 GAP1   YKR039W         Ammonia    0.1        6.64 amino aci… L-proline …
##  4 DAL5   YJR152W         Ammonia    0.1        6.64 allantoat… allantoate…
##  5 DAL5   YJR152W         Ammonia    0.15       6.64 allantoat… allantoate…
##  6 DAL5   YJR152W         Ammonia    0.2        6.64 allantoat… allantoate…
##  7 DAL5   YJR152W         Ammonia    0.25       6.64 allantoat… allantoate…
##  8 DAL5   YJR152W         Ammonia    0.3        6.64 allantoat… allantoate…
##  9 GIT1   YCR098C         Phosphate  0.05       6.64 glyceroph… glyceropho…
## 10 PHM6   YDR281C         Phosphate  0.05       6.64 biologica… molecular …
## # … with 198,420 more rows

#arrange by multiple conditions. Gene symbol (ascending) THEN expression descending
clean %>%
  arrange(symbol, desc(expression))

## # A tibble: 198,430 x 7
##    symbol systematic_name nutrient  rate expression bp         mf          
##    <chr>  <chr>           <chr>    <dbl>      <dbl> <chr>      <chr>       
##  1 AAC1   YMR056C         Glucose   0.1        1.54 aerobic r… ATP:ADP ant…
##  2 AAC1   YMR056C         Glucose   0.05       1.5  aerobic r… ATP:ADP ant…
##  3 AAC1   YMR056C         Sulfate   0.1        1.49 aerobic r… ATP:ADP ant…
##  4 AAC1   YMR056C         Uracil    0.05       1.49 aerobic r… ATP:ADP ant…
##  5 AAC1   YMR056C         Ammonia   0.1        1.47 aerobic r… ATP:ADP ant…
##  6 AAC1   YMR056C         Glucose   0.15       1.16 aerobic r… ATP:ADP ant…
##  7 AAC1   YMR056C         Sulfate   0.05       1.1  aerobic r… ATP:ADP ant…
##  8 AAC1   YMR056C         Leucine   0.05       1.08 aerobic r… ATP:ADP ant…
##  9 AAC1   YMR056C         Glucose   0.2        1.04 aerobic r… ATP:ADP ant…
## 10 AAC1   YMR056C         Ammonia   0.15       0.97 aerobic r… ATP:ADP ant…
## # … with 198,420 more rows
