5.7 EXERCISE 2 | UVA Health Sciences Library Workshops
…
            UVA Health Sciences Library Workshops

5.7 EXERCISE 2

Use separate to create two new columns called ‘nutrient’ and ‘rate’ from the old ‘nutrientrate’ column. Think about how to separate the nutrient from the rate. Look at the help menu for separate by calling ?separate

original %>%
  separate(nutrientrate, into = c("nutrient", "rate"), sep = 1)

## # A tibble: 199,296 x 9
##    GID   YORF  symbol systematic_name somenumber GWEIGHT nutrient rate 
##    <chr> <chr> <chr>  <chr>                <dbl>   <dbl> <chr>    <chr>
##  1 GENE… A_06… SFB2   YNL049C            1082129       1 G        0.05 
##  2 GENE… A_06… <NA>   YNL095C            1086222       1 G        0.05 
##  3 GENE… A_06… QRI7   YDL104C            1085955       1 G        0.05 
##  4 GENE… A_06… CFT2   YLR115W            1081958       1 G        0.05 
##  5 GENE… A_06… SSO2   YMR183C            1081214       1 G        0.05 
##  6 GENE… A_06… PSP2   YML017W            1083036       1 G        0.05 
##  7 GENE… A_06… RIB2   YOL066C            1081766       1 G        0.05 
##  8 GENE… A_06… VMA13  YPR036W            1086860       1 G        0.05 
##  9 GENE… A_06… EDC3   YEL015W            1082963       1 G        0.05 
## 10 GENE… A_06… VPS5   YOR069W            1083389       1 G        0.05 
## # … with 199,286 more rows, and 1 more variable: expression <dbl>

#make that change stick
original <- original %>%
  separate(nutrientrate, into = c("nutrient", "rate"), sep = 1)

The next thing we will do is to get rid of 4 columns we will no longer use: GID, YORF, somenumber, and GWEIGHT

original <- original %>%
  select(-GID, -YORF, -somenumber, -GWEIGHT)

original

## # A tibble: 199,296 x 5
##    symbol systematic_name nutrient rate  expression
##    <chr>  <chr>           <chr>    <chr>      <dbl>
##  1 SFB2   YNL049C         G        0.05       -0.24
##  2 <NA>   YNL095C         G        0.05        0.28
##  3 QRI7   YDL104C         G        0.05       -0.02
##  4 CFT2   YLR115W         G        0.05       -0.33
##  5 SSO2   YMR183C         G        0.05        0.05
##  6 PSP2   YML017W         G        0.05       -0.69
##  7 RIB2   YOL066C         G        0.05       -0.55
##  8 VMA13  YPR036W         G        0.05       -0.75
##  9 EDC3   YEL015W         G        0.05       -0.24
## 10 VPS5   YOR069W         G        0.05       -0.16
## # … with 199,286 more rows
…
We will use an inner join to merge the gene ontology data and the original data set. An inner join will keep instances that exist in both the left and the right dataframes

#read in GO data
sn2go <- read_csv("data/brauer2007_sysname2go.csv")

## Parsed with column specification:
## cols(
##   systematic_name = col_character(),
##   bp = col_character(),
##   mf = col_character()
## )

sn2go

## # A tibble: 5,536 x 3
##    systematic_name bp                     mf                               
##    <chr>           <chr>                  <chr>                            
##  1 YNL049C         ER to Golgi transport  molecular function unknown       
##  2 YNL095C         biological process un… molecular function unknown       
##  3 YDL104C         proteolysis and pepti… metalloendopeptidase activity    
##  4 YLR115W         mRNA polyadenylylatio… RNA binding                      
##  5 YMR183C         vesicle fusion*        t-SNARE activity                 
##  6 YML017W         biological process un… molecular function unknown       
##  7 YOL066C         riboflavin biosynthes… pseudouridylate synthase activit…
##  8 YPR036W         vacuolar acidification hydrogen-transporting ATPase act…
##  9 YEL015W         deadenylylation-indep… molecular function unknown       
## 10 YOR069W         protein retention in … protein transporter activity     
## # … with 5,526 more rows

#inner join sn2go with original
joined <- inner_join(original, sn2go, by="systematic_name")
joined

## # A tibble: 199,296 x 7
##    symbol systematic_name nutrient rate  expression bp         mf          
##    <chr>  <chr>           <chr>    <chr>      <dbl> <chr>      <chr>       
##  1 SFB2   YNL049C         G        0.05       -0.24 ER to Gol… molecular f…
##  2 <NA>   YNL095C         G        0.05        0.28 biologica… molecular f…
##  3 QRI7   YDL104C         G        0.05       -0.02 proteolys… metalloendo…
##  4 CFT2   YLR115W         G        0.05       -0.33 mRNA poly… RNA binding 
##  5 SSO2   YMR183C         G        0.05        0.05 vesicle f… t-SNARE act…
##  6 PSP2   YML017W         G        0.05       -0.69 biologica… molecular f…
##  7 RIB2   YOL066C         G        0.05       -0.55 riboflavi… pseudouridy…
##  8 VMA13  YPR036W         G        0.05       -0.75 vacuolar … hydrogen-tr…
##  9 EDC3   YEL015W         G        0.05       -0.24 deadenyly… molecular f…
## 10 VPS5   YOR069W         G        0.05       -0.16 protein r… protein tra…
## # … with 199,286 more rows
…
Now we will use left join to merge our joined dataset with the new nutrient labels.

joined %>%
  left_join(nutrient_lookup, by = "nutrient")

## # A tibble: 199,296 x 8
##    symbol systematic_name nutrient rate  expression bp    mf   
##    <chr>  <chr>           <chr>    <chr>      <dbl> <chr> <chr>
##  1 SFB2   YNL049C         G        0.05       -0.24 ER t… mole…
##  2 <NA>   YNL095C         G        0.05        0.28 biol… mole…
##  3 QRI7   YDL104C         G        0.05       -0.02 prot… meta…
##  4 CFT2   YLR115W         G        0.05       -0.33 mRNA… RNA …
##  5 SSO2   YMR183C         G        0.05        0.05 vesi… t-SN…
##  6 PSP2   YML017W         G        0.05       -0.69 biol… mole…
##  7 RIB2   YOL066C         G        0.05       -0.55 ribo… pseu…
##  8 VMA13  YPR036W         G        0.05       -0.75 vacu… hydr…
##  9 EDC3   YEL015W         G        0.05       -0.24 dead… mole…
## 10 VPS5   YOR069W         G        0.05       -0.16 prot… prot…
## # … with 199,286 more rows, and 1 more variable: nutrient_name <chr>

#make it stick
joined <- joined %>%
  left_join(nutrient_lookup, by = "nutrient")

joined

## # A tibble: 199,296 x 8
##    symbol systematic_name nutrient rate  expression bp    mf   
##    <chr>  <chr>           <chr>    <chr>      <dbl> <chr> <chr>
##  1 SFB2   YNL049C         G        0.05       -0.24 ER t… mole…
##  2 <NA>   YNL095C         G        0.05        0.28 biol… mole…
##  3 QRI7   YDL104C         G        0.05       -0.02 prot… meta…
##  4 CFT2   YLR115W         G        0.05       -0.33 mRNA… RNA …
##  5 SSO2   YMR183C         G        0.05        0.05 vesi… t-SN…
##  6 PSP2   YML017W         G        0.05       -0.69 biol… mole…
##  7 RIB2   YOL066C         G        0.05       -0.55 ribo… pseu…
##  8 VMA13  YPR036W         G        0.05       -0.75 vacu… hydr…
##  9 EDC3   YEL015W         G        0.05       -0.24 dead… mole…
## 10 VPS5   YOR069W         G        0.05       -0.16 prot… prot…
## # … with 199,286 more rows, and 1 more variable: nutrient_name <chr>

Finally we will change rate to numeric and replace the nutrient column with the nutrient_name.

To create new variables or change variables in place, we are going to use dplyr’s mutate() function. Just like the other dplyr verbs we learned, filter() and select(), mutate() takes a dataframe as the first argument and then the name of the new variable followed by a function to create the new variable. Remember, these functions don’t modify the data frame you’re operating on, and the result is transient unless you assign it to a new object or reassign it back to itself (not always a good practice).

Let’s use mutate() to change rate into numeric.

joined %>%
  mutate(rate = as.numeric(rate))

## # A tibble: 199,296 x 8
##    symbol systematic_name nutrient  rate expression bp    mf   
##    <chr>  <chr>           <chr>    <dbl>      <dbl> <chr> <chr>
##  1 SFB2   YNL049C         G         0.05      -0.24 ER t… mole…
##  2 <NA>   YNL095C         G         0.05       0.28 biol… mole…
##  3 QRI7   YDL104C         G         0.05      -0.02 prot… meta…
##  4 CFT2   YLR115W         G         0.05      -0.33 mRNA… RNA …
##  5 SSO2   YMR183C         G         0.05       0.05 vesi… t-SN…
##  6 PSP2   YML017W         G         0.05      -0.69 biol… mole…
##  7 RIB2   YOL066C         G         0.05      -0.55 ribo… pseu…
##  8 VMA13  YPR036W         G         0.05      -0.75 vacu… hydr…
##  9 EDC3   YEL015W         G         0.05      -0.24 dead… mole…
## 10 VPS5   YOR069W         G         0.05      -0.16 prot… prot…
## # … with 199,286 more rows, and 1 more variable: nutrient_name <chr>

joined

## # A tibble: 199,296 x 8
##    symbol systematic_name nutrient rate  expression bp    mf   
##    <chr>  <chr>           <chr>    <chr>      <dbl> <chr> <chr>
##  1 SFB2   YNL049C         G        0.05       -0.24 ER t… mole…
##  2 <NA>   YNL095C         G        0.05        0.28 biol… mole…
##  3 QRI7   YDL104C         G        0.05       -0.02 prot… meta…
##  4 CFT2   YLR115W         G        0.05       -0.33 mRNA… RNA …
##  5 SSO2   YMR183C         G        0.05        0.05 vesi… t-SN…
##  6 PSP2   YML017W         G        0.05       -0.69 biol… mole…
##  7 RIB2   YOL066C         G        0.05       -0.55 ribo… pseu…
##  8 VMA13  YPR036W         G        0.05       -0.75 vacu… hydr…
##  9 EDC3   YEL015W         G        0.05       -0.24 dead… mole…
## 10 VPS5   YOR069W         G        0.05       -0.16 prot… prot…
## # … with 199,286 more rows, and 1 more variable: nutrient_name <chr>

Notice that in the symbol, there are NAs but they are formatted just like the other gene symbols. We will use a common structure calling ifelse() within the mutate function to recode the NAs as missings

joined %>%
  mutate(rate = as.numeric(rate))  %>%
  mutate(symbol = ifelse(symbol == "NA", NA, symbol))

## # A tibble: 199,296 x 8
##    symbol systematic_name nutrient  rate expression bp    mf   
##    <chr>  <chr>           <chr>    <dbl>      <dbl> <chr> <chr>
##  1 SFB2   YNL049C         G         0.05      -0.24 ER t… mole…
##  2 <NA>   YNL095C         G         0.05       0.28 biol… mole…
##  3 QRI7   YDL104C         G         0.05      -0.02 prot… meta…
##  4 CFT2   YLR115W         G         0.05      -0.33 mRNA… RNA …
##  5 SSO2   YMR183C         G         0.05       0.05 vesi… t-SN…
##  6 PSP2   YML017W         G         0.05      -0.69 biol… mole…
##  7 RIB2   YOL066C         G         0.05      -0.55 ribo… pseu…
##  8 VMA13  YPR036W         G         0.05      -0.75 vacu… hydr…
##  9 EDC3   YEL015W         G         0.05      -0.24 dead… mole…
## 10 VPS5   YOR069W         G         0.05      -0.16 prot… prot…
## # … with 199,286 more rows, and 1 more variable: nutrient_name <chr>

Next, we will use select to remove the nutrient column and then a second call to select to move the nutrient name column into the place and variable name nutrient

joined %>%
  mutate(rate = as.numeric(rate))  %>%
  mutate(symbol = ifelse(symbol == "NA", NA, symbol)) %>%
  select(-nutrient) %>%
  select(symbol, systematic_name, nutrient = nutrient_name, rate:mf)

## # A tibble: 199,296 x 7
##    symbol systematic_name nutrient  rate expression bp         mf          
##    <chr>  <chr>           <chr>    <dbl>      <dbl> <chr>      <chr>       
##  1 SFB2   YNL049C         Glucose   0.05      -0.24 ER to Gol… molecular f…
##  2 <NA>   YNL095C         Glucose   0.05       0.28 biologica… molecular f…
##  3 QRI7   YDL104C         Glucose   0.05      -0.02 proteolys… metalloendo…
##  4 CFT2   YLR115W         Glucose   0.05      -0.33 mRNA poly… RNA binding 
##  5 SSO2   YMR183C         Glucose   0.05       0.05 vesicle f… t-SNARE act…
##  6 PSP2   YML017W         Glucose   0.05      -0.69 biologica… molecular f…
##  7 RIB2   YOL066C         Glucose   0.05      -0.55 riboflavi… pseudouridy…
##  8 VMA13  YPR036W         Glucose   0.05      -0.75 vacuolar … hydrogen-tr…
##  9 EDC3   YEL015W         Glucose   0.05      -0.24 deadenyly… molecular f…
## 10 VPS5   YOR069W         Glucose   0.05      -0.16 protein r… protein tra…
## # … with 199,286 more rows

#make it stick
joined <- joined %>%
  mutate(rate = as.numeric(rate)) %>%
  mutate(symbol = ifelse(symbol == "NA", NA, symbol)) %>%
  select(-nutrient) %>%
  select(symbol:systematic_name, nutrient = nutrient_name, rate:mf)

Our last tidying step will be to remove cases where gene expression was missing.

joined %>%
  filter(!is.na(expression))

## # A tibble: 198,430 x 7
##    symbol systematic_name nutrient  rate expression bp         mf          
##    <chr>  <chr>           <chr>    <dbl>      <dbl> <chr>      <chr>       
##  1 SFB2   YNL049C         Glucose   0.05      -0.24 ER to Gol… molecular f…
##  2 <NA>   YNL095C         Glucose   0.05       0.28 biologica… molecular f…
##  3 QRI7   YDL104C         Glucose   0.05      -0.02 proteolys… metalloendo…
##  4 CFT2   YLR115W         Glucose   0.05      -0.33 mRNA poly… RNA binding 
##  5 SSO2   YMR183C         Glucose   0.05       0.05 vesicle f… t-SNARE act…
##  6 PSP2   YML017W         Glucose   0.05      -0.69 biologica… molecular f…
##  7 RIB2   YOL066C         Glucose   0.05      -0.55 riboflavi… pseudouridy…
##  8 VMA13  YPR036W         Glucose   0.05      -0.75 vacuolar … hydrogen-tr…
##  9 EDC3   YEL015W         Glucose   0.05      -0.24 deadenyly… molecular f…
## 10 VPS5   YOR069W         Glucose   0.05      -0.16 protein r… protein tra…
## # … with 198,420 more rows
…
