Chapter 2 Data Visualization with ggplot2 | UVA Health Sciences Library Workshops
…
We can adjust things like the width, height, and resolution. ggsave() also recognizes the name of the file extension and saves the appropriate kind of file. Let’s save pfinal as a PDF with dimensions 5x15 (inches).

ggsave(pfinal, filename = "incidence.pdf", width=5, height=15)

2.10.1 EXERCISE 4

A. Start with a filter() statement to subset tb for just data from the year 2017.

SHOW ANSWER A

tb %>%
  filter(year == 2017)

## # A tibble: 178 x 18
##    country who_region  year    pop incidence_100k incidence_number
##    <chr>   <chr>      <dbl>  <dbl>          <dbl>            <dbl>
##  1 Afghan… EMR         2017 3.55e7          189              67000
##  2 Albania EUR         2017 2.93e6           20                580
##  3 Algeria AFR         2017 4.13e7           70              29000
##  4 Angola  AFR         2017 2.98e7          359             107000
##  5 Argent… AMR         2017 4.43e7           26              12000
##  6 Armenia EUR         2017 2.93e6           36               1100
##  7 Austra… WPR         2017 2.45e7            6.8             1700
##  8 Austria EUR         2017 8.74e6            7.4              650
##  9 Azerba… EUR         2017 9.83e6           67               6500
## 10 Bahamas AMR         2017 3.95e5           15                 59
## # … with 168 more rows, and 12 more variables: hiv_percent <dbl>,
## #   hiv_incidence_100k <dbl>, hiv_number <dbl>, mort_nohiv_100k <dbl>,
## #   mort_nohiv_number <dbl>, mort_hiv_100k <dbl>, mort_hiv_number <dbl>,
## #   mort_100k <dbl>, mort_number <dbl>, case_fatality_ratio <dbl>,
## #   new_incidence_100k <dbl>, case_detection_percent <dbl>
…
