Chapter 14 Manipulating Data | UVA Health Sciences Library Workshops
…
## See spec(...) for full column specifications.

# Display the data
nh

# Optionally, bring up the data in a viewer window
# View(nh)

## # A tibble: 5,000 x 32
##       id Gender   Age Race  Education MaritalStatus RelationshipSta…
##    <dbl> <chr>  <dbl> <chr> <chr>     <chr>         <chr>           
##  1 62163 male      14 Asian <NA>      <NA>          <NA>            
##  2 62172 female    43 Black High Sch… NeverMarried  Single          
##  3 62174 male      80 White College … Married       Committed       
##  4 62174 male      80 White College … Married       Committed       
##  5 62175 male       5 White <NA>      <NA>          <NA>            
##  6 62176 female    34 White College … Married       Committed       
##  7 62178 male      80 White High Sch… Widowed       Single          
##  8 62180 male      35 White College … Married       Committed       
##  9 62186 female    17 Black <NA>      <NA>          <NA>            
## 10 62190 female    15 Mexi… <NA>      <NA>          <NA>            
## # … with 4,990 more rows, and 25 more variables: Insured <chr>,
## #   Income <dbl>, Poverty <dbl>, HomeRooms <dbl>, HomeOwn <chr>,
## #   Work <chr>, Weight <dbl>, Height <dbl>, BMI <dbl>, Pulse <dbl>,
## #   BPSys <dbl>, BPDia <dbl>, Testosterone <dbl>, HDLChol <dbl>,
## #   TotChol <dbl>, Diabetes <chr>, DiabetesAge <dbl>, nPregnancies <dbl>,
## #   nBabies <dbl>, SleepHrsNight <dbl>, PhysActive <chr>,
## #   PhysActiveDays <dbl>, AlcoholDay <dbl>, AlcoholYear <dbl>,
## #   SmokingStatus <chr>
…
>, >=: Greater than, greater than or equal to

<, <=: Less than, less than or equal to

Let’s try it out. For this to work you have to have already loaded the dplyr package (we loaded it when we ran library(tidyverse)).

Let’s take a look at just the people in the NHanes survey with Diabetes.

# First, make sure you've loaded the dplyr package from the tidyverse
# library(tidyverse)

# Look at just the people with Diabetes
filter(nh, Diabetes == "Yes")

## # A tibble: 373 x 32
##       id Gender   Age Race  Education MaritalStatus RelationshipSta…
##    <dbl> <chr>  <dbl> <chr> <chr>     <chr>         <chr>           
##  1 62228 male      50 White College … Married       Committed       
##  2 62228 male      50 White College … Married       Committed       
##  3 62228 male      50 White College … Married       Committed       
##  4 62233 female    63 Mexi… 9 - 11th… Separated     Single          
##  5 62259 male      61 Black Some Col… Divorced      Single          
##  6 62302 female    51 Hisp… 8th Grade NeverMarried  Single          
##  7 62366 male      80 White High Sch… Married       Committed       
##  8 62368 female    80 Hisp… 8th Grade Widowed       Single          
##  9 62388 female    69 White High Sch… Widowed       Single          
## 10 62388 female    69 White High Sch… Widowed       Single          
## # … with 363 more rows, and 25 more variables: Insured <chr>,
## #   Income <dbl>, Poverty <dbl>, HomeRooms <dbl>, HomeOwn <chr>,
## #   Work <chr>, Weight <dbl>, Height <dbl>, BMI <dbl>, Pulse <dbl>,
## #   BPSys <dbl>, BPDia <dbl>, Testosterone <dbl>, HDLChol <dbl>,
## #   TotChol <dbl>, Diabetes <chr>, DiabetesAge <dbl>, nPregnancies <dbl>,
## #   nBabies <dbl>, SleepHrsNight <dbl>, PhysActive <chr>,
## #   PhysActiveDays <dbl>, AlcoholDay <dbl>, AlcoholYear <dbl>,
## #   SmokingStatus <chr>

# Optionally, bring that result up in a View window
# View(filter(nh, Diabetes == "Yes"))

# Look at multiple Race categories
unique(nh$Race) #what race categories are there?

## [1] "Asian"    "Black"    "White"    "Mexican"  "Hispanic" "Other"

filter(nh, Race =="Asian" | Race =="Black")

## # A tibble: 877 x 32
##       id Gender   Age Race  Education MaritalStatus RelationshipSta…
##    <dbl> <chr>  <dbl> <chr> <chr>     <chr>         <chr>           
##  1 62163 male      14 Asian <NA>      <NA>          <NA>            
##  2 62172 female    43 Black High Sch… NeverMarried  Single          
##  3 62186 female    17 Black <NA>      <NA>          <NA>            
##  4 62220 female    31 Black College … NeverMarried  Single          
##  5 62223 male      54 Asian High Sch… Married       Committed       
##  6 62259 male      61 Black Some Col… Divorced      Single          
##  7 62271 male       7 Black <NA>      <NA>          <NA>            
##  8 62279 male      80 Black 9 - 11th… Widowed       Single          
##  9 62279 male      80 Black 9 - 11th… Widowed       Single          
## 10 62297 male      43 Black Some Col… Married       Committed       
## # … with 867 more rows, and 25 more variables: Insured <chr>,
## #   Income <dbl>, Poverty <dbl>, HomeRooms <dbl>, HomeOwn <chr>,
## #   Work <chr>, Weight <dbl>, Height <dbl>, BMI <dbl>, Pulse <dbl>,
## #   BPSys <dbl>, BPDia <dbl>, Testosterone <dbl>, HDLChol <dbl>,
## #   TotChol <dbl>, Diabetes <chr>, DiabetesAge <dbl>, nPregnancies <dbl>,
## #   nBabies <dbl>, SleepHrsNight <dbl>, PhysActive <chr>,
## #   PhysActiveDays <dbl>, AlcoholDay <dbl>, AlcoholYear <dbl>,
## #   SmokingStatus <chr>

# Look at people of or under age 30 whose income greater than or equal to 70K
filter(nh, Income >= 70000 & Age <= 30)

## # A tibble: 760 x 32
##       id Gender   Age Race  Education MaritalStatus RelationshipSta…
##    <dbl> <chr>  <dbl> <chr> <chr>     <chr>         <chr>           
##  1 62163 male      14 Asian <NA>      <NA>          <NA>            
##  2 62205 male      28 White College … NeverMarried  Single          
##  3 62205 male      28 White College … NeverMarried  Single          
##  4 62205 male      28 White College … NeverMarried  Single          
##  5 62205 male      28 White College … NeverMarried  Single          
##  6 62210 male      15 White <NA>      <NA>          <NA>            
##  7 62225 female    13 Mexi… <NA>      <NA>          <NA>            
##  8 62227 male      19 White <NA>      <NA>          <NA>            
##  9 62235 female     2 White <NA>      <NA>          <NA>            
## 10 62241 male       2 Hisp… <NA>      <NA>          <NA>            
## # … with 750 more rows, and 25 more variables: Insured <chr>,
## #   Income <dbl>, Poverty <dbl>, HomeRooms <dbl>, HomeOwn <chr>,
## #   Work <chr>, Weight <dbl>, Height <dbl>, BMI <dbl>, Pulse <dbl>,
## #   BPSys <dbl>, BPDia <dbl>, Testosterone <dbl>, HDLChol <dbl>,
## #   TotChol <dbl>, Diabetes <chr>, DiabetesAge <dbl>, nPregnancies <dbl>,
## #   nBabies <dbl>, SleepHrsNight <dbl>, PhysActive <chr>,
## #   PhysActiveDays <dbl>, AlcoholDay <dbl>, AlcoholYear <dbl>,
## #   SmokingStatus <chr>

# YOUR TURN: How many people in the NHanes survey that meet the above two criteria are a racial minority (not white)?
filter(nh, Age <= 30 & Race != "White")

## # A tibble: 993 x 32
##       id Gender   Age Race  Education MaritalStatus RelationshipSta…
##    <dbl> <chr>  <dbl> <chr> <chr>     <chr>         <chr>           
##  1 62163 male      14 Asian <NA>      <NA>          <NA>            
##  2 62186 female    17 Black <NA>      <NA>          <NA>            
##  3 62190 female    15 Mexi… <NA>      <NA>          <NA>            
##  4 62219 female     2 Mexi… <NA>      <NA>          <NA>            
##  5 62225 female    13 Mexi… <NA>      <NA>          <NA>            
##  6 62241 male       2 Hisp… <NA>      <NA>          <NA>            
##  7 62257 female     2 Mexi… <NA>      <NA>          <NA>            
##  8 62268 female    15 Mexi… <NA>      <NA>          <NA>            
##  9 62271 male       7 Black <NA>      <NA>          <NA>            
## 10 62301 male      23 Black 9 - 11th… NeverMarried  Single          
## # … with 983 more rows, and 25 more variables: Insured <chr>,
## #   Income <dbl>, Poverty <dbl>, HomeRooms <dbl>, HomeOwn <chr>,
## #   Work <chr>, Weight <dbl>, Height <dbl>, BMI <dbl>, Pulse <dbl>,
## #   BPSys <dbl>, BPDia <dbl>, Testosterone <dbl>, HDLChol <dbl>,
## #   TotChol <dbl>, Diabetes <chr>, DiabetesAge <dbl>, nPregnancies <dbl>,
## #   nBabies <dbl>, SleepHrsNight <dbl>, PhysActive <chr>,
## #   PhysActiveDays <dbl>, AlcoholDay <dbl>, AlcoholYear <dbl>,
## #   SmokingStatus <chr>

EXERCISE
1. Use filter to find out how many people in the 90th percentile for Weight have Diabetes. Hint: see ?quantile and try quantile(nh$Weight, probs=.90, na.rm = TRUE) to see the weight value which is higher than 90% of all the data, then filter() based on that. Try wrapping your answer with a dim() function so you can see how many there were.

14.5.2 select()

The filter() function allows you to return only certain rows matching a condition. The select() function returns only certain columns. The first argument is the data, and subsequent arguments are the columns you want.

# Select just the Pulse and Blood Pressure variables
select(nh, Pulse, BPSys, BPDia)

## # A tibble: 5,000 x 3
##    Pulse BPSys BPDia
##    <dbl> <dbl> <dbl>
##  1    72   107    37
##  2    80   103    72
##  3    56    97    39
##  4    56    97    39
##  5    NA    NA    NA
##  6    92   107    69
##  7    68   121    72
##  8    66   107    66
##  9    86   108    64
## 10    76   113    27
## # … with 4,990 more rows

# Alternatively, just remove columns. Remove the id and the HomeRooms and HomeOwn columns.
select(nh, -id, -HomeRooms, -HomeOwn)

## # A tibble: 5,000 x 29
##    Gender   Age Race  Education MaritalStatus RelationshipSta… Insured
##    <chr>  <dbl> <chr> <chr>     <chr>         <chr>            <chr>  
##  1 male      14 Asian <NA>      <NA>          <NA>             Yes    
##  2 female    43 Black High Sch… NeverMarried  Single           Yes    
##  3 male      80 White College … Married       Committed        Yes    
##  4 male      80 White College … Married       Committed        Yes    
##  5 male       5 White <NA>      <NA>          <NA>             Yes    
##  6 female    34 White College … Married       Committed        Yes    
##  7 male      80 White High Sch… Widowed       Single           Yes    
##  8 male      35 White College … Married       Committed        Yes    
##  9 female    17 Black <NA>      <NA>          <NA>             Yes    
## 10 female    15 Mexi… <NA>      <NA>          <NA>             Yes    
## # … with 4,990 more rows, and 22 more variables: Income <dbl>,
## #   Poverty <dbl>, Work <chr>, Weight <dbl>, Height <dbl>, BMI <dbl>,
## #   Pulse <dbl>, BPSys <dbl>, BPDia <dbl>, Testosterone <dbl>,
## #   HDLChol <dbl>, TotChol <dbl>, Diabetes <chr>, DiabetesAge <dbl>,
## #   nPregnancies <dbl>, nBabies <dbl>, SleepHrsNight <dbl>,
## #   PhysActive <chr>, PhysActiveDays <dbl>, AlcoholDay <dbl>,
## #   AlcoholYear <dbl>, SmokingStatus <chr>

# Notice how the original data is unchanged - still have all 32 columns
nh

## # A tibble: 5,000 x 32
##       id Gender   Age Race  Education MaritalStatus RelationshipSta…
##    <dbl> <chr>  <dbl> <chr> <chr>     <chr>         <chr>           
##  1 62163 male      14 Asian <NA>      <NA>          <NA>            
##  2 62172 female    43 Black High Sch… NeverMarried  Single          
##  3 62174 male      80 White College … Married       Committed       
##  4 62174 male      80 White College … Married       Committed       
##  5 62175 male       5 White <NA>      <NA>          <NA>            
##  6 62176 female    34 White College … Married       Committed       
##  7 62178 male      80 White High Sch… Widowed       Single          
##  8 62180 male      35 White College … Married       Committed       
##  9 62186 female    17 Black <NA>      <NA>          <NA>            
## 10 62190 female    15 Mexi… <NA>      <NA>          <NA>            
## # … with 4,990 more rows, and 25 more variables: Insured <chr>,
## #   Income <dbl>, Poverty <dbl>, HomeRooms <dbl>, HomeOwn <chr>,
## #   Work <chr>, Weight <dbl>, Height <dbl>, BMI <dbl>, Pulse <dbl>,
## #   BPSys <dbl>, BPDia <dbl>, Testosterone <dbl>, HDLChol <dbl>,
## #   TotChol <dbl>, Diabetes <chr>, DiabetesAge <dbl>, nPregnancies <dbl>,
## #   nBabies <dbl>, SleepHrsNight <dbl>, PhysActive <chr>,
## #   PhysActiveDays <dbl>, AlcoholDay <dbl>, AlcoholYear <dbl>,
## #   SmokingStatus <chr>
…
The mutate() function adds new columns to the data. Remember, it doesn’t actually modify the data frame you’re operating on, and the result is transient unless you assign it to a new object or reassign it back to itself (generally, not always a good practice).

The HDL to Total Cholesterol value can be predictive for risk of heart disease. Let’s mutate this data to add a new variable called “CholRatio” that is the HDLChol / TotChol.

mutate(phys, CholRatio=HDLChol / TotChol)

14.5.4 arrange()

The arrange() function takes a data frame or tbl and arranges (or sorts) by column(s) of interest. The first argument is the data, and subsequent arguments are columns to sort on. Use the desc() function to arrange by descending.

# arrange by Testosterone (default: increasing)
arrange(nh, Testosterone)

## # A tibble: 5,000 x 32
##       id Gender   Age Race  Education MaritalStatus RelationshipSta…
##    <dbl> <chr>  <dbl> <chr> <chr>     <chr>         <chr>           
##  1 62276 male       9 White <NA>      <NA>          <NA>            
##  2 63028 female     6 Mexi… <NA>      <NA>          <NA>            
##  3 64932 male       6 White <NA>      <NA>          <NA>            
##  4 64932 male       6 White <NA>      <NA>          <NA>            
##  5 64932 male       6 White <NA>      <NA>          <NA>            
##  6 65510 female    65 White 9 - 11th… Married       Committed       
##  7 66992 male       7 White <NA>      <NA>          <NA>            
##  8 67524 male       6 Hisp… <NA>      <NA>          <NA>            
##  9 68534 female     8 Hisp… <NA>      <NA>          <NA>            
## 10 63588 female    80 White Some Col… Married       Committed       
## # … with 4,990 more rows, and 25 more variables: Insured <chr>,
## #   Income <dbl>, Poverty <dbl>, HomeRooms <dbl>, HomeOwn <chr>,
## #   Work <chr>, Weight <dbl>, Height <dbl>, BMI <dbl>, Pulse <dbl>,
## #   BPSys <dbl>, BPDia <dbl>, Testosterone <dbl>, HDLChol <dbl>,
## #   TotChol <dbl>, Diabetes <chr>, DiabetesAge <dbl>, nPregnancies <dbl>,
## #   nBabies <dbl>, SleepHrsNight <dbl>, PhysActive <chr>,
## #   PhysActiveDays <dbl>, AlcoholDay <dbl>, AlcoholYear <dbl>,
## #   SmokingStatus <chr>

# arrange by Weight (descending)
arrange(nh, desc(Weight))

## # A tibble: 5,000 x 32
##       id Gender   Age Race  Education MaritalStatus RelationshipSta…
##    <dbl> <chr>  <dbl> <chr> <chr>     <chr>         <chr>           
##  1 70466 female    25 White High Sch… LivePartner   Committed       
##  2 68256 female    46 Black Some Col… Married       Committed       
##  3 69207 female    30 Black High Sch… NeverMarried  Single          
##  4 70026 male      31 Black Some Col… NeverMarried  Single          
##  5 65773 male      34 Black College … Married       Committed       
##  6 66213 male      18 Other <NA>      <NA>          <NA>            
##  7 63215 female    62 Black Some Col… Divorced      Single          
##  8 65537 male      21 White High Sch… NeverMarried  Single          
##  9 65537 male      21 White High Sch… NeverMarried  Single          
## 10 65537 male      21 White High Sch… NeverMarried  Single          
## # … with 4,990 more rows, and 25 more variables: Insured <chr>,
## #   Income <dbl>, Poverty <dbl>, HomeRooms <dbl>, HomeOwn <chr>,
## #   Work <chr>, Weight <dbl>, Height <dbl>, BMI <dbl>, Pulse <dbl>,
## #   BPSys <dbl>, BPDia <dbl>, Testosterone <dbl>, HDLChol <dbl>,
## #   TotChol <dbl>, Diabetes <chr>, DiabetesAge <dbl>, nPregnancies <dbl>,
## #   nBabies <dbl>, SleepHrsNight <dbl>, PhysActive <chr>,
## #   PhysActiveDays <dbl>, AlcoholDay <dbl>, AlcoholYear <dbl>,
## #   SmokingStatus <chr>
…
# Use a more friendly name, e.g., meanWeight, or whatever you want to call it.
summarize(nh, meanWeight=mean(Weight, na.rm = TRUE))

## # A tibble: 1 x 1
##   meanWeight
##        <dbl>
## 1       70.3

14.5.6 group_by()

We saw that summarize() isn’t that useful on its own. Neither is group_by() All this does is takes an existing data frame and coverts it into a grouped data frame where operations are performed by group.

nh

## # A tibble: 5,000 x 32
##       id Gender   Age Race  Education MaritalStatus RelationshipSta…
##    <dbl> <chr>  <dbl> <chr> <chr>     <chr>         <chr>           
##  1 62163 male      14 Asian <NA>      <NA>          <NA>            
##  2 62172 female    43 Black High Sch… NeverMarried  Single          
##  3 62174 male      80 White College … Married       Committed       
##  4 62174 male      80 White College … Married       Committed       
##  5 62175 male       5 White <NA>      <NA>          <NA>            
##  6 62176 female    34 White College … Married       Committed       
##  7 62178 male      80 White High Sch… Widowed       Single          
##  8 62180 male      35 White College … Married       Committed       
##  9 62186 female    17 Black <NA>      <NA>          <NA>            
## 10 62190 female    15 Mexi… <NA>      <NA>          <NA>            
## # … with 4,990 more rows, and 25 more variables: Insured <chr>,
## #   Income <dbl>, Poverty <dbl>, HomeRooms <dbl>, HomeOwn <chr>,
## #   Work <chr>, Weight <dbl>, Height <dbl>, BMI <dbl>, Pulse <dbl>,
## #   BPSys <dbl>, BPDia <dbl>, Testosterone <dbl>, HDLChol <dbl>,
## #   TotChol <dbl>, Diabetes <chr>, DiabetesAge <dbl>, nPregnancies <dbl>,
## #   nBabies <dbl>, SleepHrsNight <dbl>, PhysActive <chr>,
## #   PhysActiveDays <dbl>, AlcoholDay <dbl>, AlcoholYear <dbl>,
## #   SmokingStatus <chr>

group_by(nh, Race)

## # A tibble: 5,000 x 32
## # Groups:   Race [6]
##       id Gender   Age Race  Education MaritalStatus RelationshipSta…
##    <dbl> <chr>  <dbl> <chr> <chr>     <chr>         <chr>           
##  1 62163 male      14 Asian <NA>      <NA>          <NA>            
##  2 62172 female    43 Black High Sch… NeverMarried  Single          
##  3 62174 male      80 White College … Married       Committed       
##  4 62174 male      80 White College … Married       Committed       
##  5 62175 male       5 White <NA>      <NA>          <NA>            
##  6 62176 female    34 White College … Married       Committed       
##  7 62178 male      80 White High Sch… Widowed       Single          
##  8 62180 male      35 White College … Married       Committed       
##  9 62186 female    17 Black <NA>      <NA>          <NA>            
## 10 62190 female    15 Mexi… <NA>      <NA>          <NA>            
## # … with 4,990 more rows, and 25 more variables: Insured <chr>,
## #   Income <dbl>, Poverty <dbl>, HomeRooms <dbl>, HomeOwn <chr>,
## #   Work <chr>, Weight <dbl>, Height <dbl>, BMI <dbl>, Pulse <dbl>,
## #   BPSys <dbl>, BPDia <dbl>, Testosterone <dbl>, HDLChol <dbl>,
## #   TotChol <dbl>, Diabetes <chr>, DiabetesAge <dbl>, nPregnancies <dbl>,
## #   nBabies <dbl>, SleepHrsNight <dbl>, PhysActive <chr>,
## #   PhysActiveDays <dbl>, AlcoholDay <dbl>, AlcoholYear <dbl>,
## #   SmokingStatus <chr>
…
