5.6 Resources for Regular Expressions | UVA Health Sciences Library Workshops
…
            UVA Health Sciences Library Workshops

5.6 Resources for Regular Expressions

For a nice cheatsheet for writing regular expressions in R, see a Regex cheatsheet. Jenny Bryan has created a nice website tutorial for learning to use Regular Expressions in R.

Notice that our original variable NAME no longer appears. This change is good, but so far is only in the console. The originial dataframe is still unchanged.

original

## # A tibble: 5,536 x 40
##    GID   YORF  NAME  GWEIGHT G0.05  G0.1 G0.15  G0.2 G0.25  G0.3 N0.05
##    <chr> <chr> <chr>   <dbl> <dbl> <dbl> <dbl> <dbl> <dbl> <dbl> <dbl>
##  1 GENE… A_06… SFB2…       1 -0.24 -0.13 -0.21 -0.15 -0.05 -0.05  0.2 
##  2 GENE… A_06… NA::…       1  0.28  0.13 -0.4  -0.48 -0.11  0.17  0.31
##  3 GENE… A_06… QRI7…       1 -0.02 -0.27 -0.27 -0.02  0.24  0.25  0.23
##  4 GENE… A_06… CFT2…       1 -0.33 -0.41 -0.24 -0.03 -0.03  0     0.2 
##  5 GENE… A_06… SSO2…       1  0.05  0.02  0.4   0.34 -0.13 -0.14 -0.35
##  6 GENE… A_06… PSP2…       1 -0.69 -0.03  0.23  0.2   0    -0.27  0.17
##  7 GENE… A_06… RIB2…       1 -0.55 -0.3  -0.12 -0.03 -0.16 -0.11  0.04
##  8 GENE… A_06… VMA1…       1 -0.75 -0.12 -0.07  0.02 -0.32 -0.41  0.11
##  9 GENE… A_06… EDC3…       1 -0.24 -0.22  0.14  0.06  0    -0.13  0.3 
## 10 GENE… A_06… VPS5…       1 -0.16 -0.38  0.05  0.14 -0.04 -0.01  0.39
## # … with 5,526 more rows, and 29 more variables: N0.1 <dbl>, N0.15 <dbl>,
## #   N0.2 <dbl>, N0.25 <dbl>, N0.3 <dbl>, P0.05 <dbl>, P0.1 <dbl>,
## #   P0.15 <dbl>, P0.2 <dbl>, P0.25 <dbl>, P0.3 <dbl>, S0.05 <dbl>,
## #   S0.1 <dbl>, S0.15 <dbl>, S0.2 <dbl>, S0.25 <dbl>, S0.3 <dbl>,
## #   L0.05 <dbl>, L0.1 <dbl>, L0.15 <dbl>, L0.2 <dbl>, L0.25 <dbl>,
## #   L0.3 <dbl>, U0.05 <dbl>, U0.1 <dbl>, U0.15 <dbl>, U0.2 <dbl>,
## #   U0.25 <dbl>, U0.3 <dbl>

Let’s keep the change created by the separate() function by saving original with separate back into original

original <- original %>%
  separate(NAME, into= c("symbol", "systematic_name", "somenumber"), sep = "::")

The next problem we will tackle is reshaping the dataframe. Notice that we have several variables that seem to be encoding the same information. Columns G0.05 through U0.3 tell us the gene expression under the nutrient / growth rate condition. We will use gather to change the dataframe from wide to long – make nutrient and growth rate extra rows.

After the dataframe, gather() needs 3 other arguments. The first two are very important, but take some getting used to. key is the new column you want to create that has the old dataframe column headers. value corresponds to the row entries from old dataframe that you want in a new column. The third argument is the vector of columns that we want gather() to operate on.

original %>% 
  gather(key = nutrientrate, value = expression, G0.05:U0.3)

## # A tibble: 199,296 x 8
##    GID   YORF  symbol systematic_name somenumber GWEIGHT nutrientrate
##    <chr> <chr> <chr>  <chr>           <chr>        <dbl> <chr>       
##  1 GENE… A_06… SFB2   YNL049C         1082129          1 G0.05       
##  2 GENE… A_06… NA     YNL095C         1086222          1 G0.05       
##  3 GENE… A_06… QRI7   YDL104C         1085955          1 G0.05       
##  4 GENE… A_06… CFT2   YLR115W         1081958          1 G0.05       
##  5 GENE… A_06… SSO2   YMR183C         1081214          1 G0.05       
##  6 GENE… A_06… PSP2   YML017W         1083036          1 G0.05       
##  7 GENE… A_06… RIB2   YOL066C         1081766          1 G0.05       
##  8 GENE… A_06… VMA13  YPR036W         1086860          1 G0.05       
##  9 GENE… A_06… EDC3   YEL015W         1082963          1 G0.05       
## 10 GENE… A_06… VPS5   YOR069W         1083389          1 G0.05       
## # … with 199,286 more rows, and 1 more variable: expression <dbl>
…
#are any different lengths?
str_length(original$nutrientrate) %>% table()

## .
##     4     5 
## 99648 99648

#Some are 4 and some are 5. Let's take a look at ones that are length 4 using the filter function from dplyr
original %>%
  filter(str_length(nutrientrate) == 4) 

## # A tibble: 99,648 x 8
##    GID   YORF  symbol systematic_name somenumber GWEIGHT nutrientrate
##    <chr> <chr> <chr>  <chr>                <dbl>   <dbl> <chr>       
##  1 GENE… A_06… SFB2   YNL049C            1082129       1 G0.1        
##  2 GENE… A_06… <NA>   YNL095C            1086222       1 G0.1        
##  3 GENE… A_06… QRI7   YDL104C            1085955       1 G0.1        
##  4 GENE… A_06… CFT2   YLR115W            1081958       1 G0.1        
##  5 GENE… A_06… SSO2   YMR183C            1081214       1 G0.1        
##  6 GENE… A_06… PSP2   YML017W            1083036       1 G0.1        
##  7 GENE… A_06… RIB2   YOL066C            1081766       1 G0.1        
##  8 GENE… A_06… VMA13  YPR036W            1086860       1 G0.1        
##  9 GENE… A_06… EDC3   YEL015W            1082963       1 G0.1        
## 10 GENE… A_06… VPS5   YOR069W            1083389       1 G0.1        
## # … with 99,638 more rows, and 1 more variable: expression <dbl>

#select the nutrientrate column
original %>%
  filter(str_length(nutrientrate) == 4) %>%
  select(nutrientrate) 

## # A tibble: 99,648 x 1
##    nutrientrate
##    <chr>       
##  1 G0.1        
##  2 G0.1        
##  3 G0.1        
##  4 G0.1        
##  5 G0.1        
##  6 G0.1        
##  7 G0.1        
##  8 G0.1        
##  9 G0.1        
## 10 G0.1        
## # … with 99,638 more rows
…
