Chapter 10 Subset a dataframe using filter() | UVA Health Sciences Library Workshops
…
There are six basic logical operators in R
-equal to ==
-not equal to !=
-greather than >
-greater than or equal to >=
-less than <
-less than or equal to <=

You can chain multiple conditions together with the AND operator & or the OR | operator

Let’s see how it works by filtering for rows where the population is over 70Million. The first argument is the dataframe and the second is the logical criteria a row must meet to be returned. I’ll choose to use my new popmill variable

filter(gm, popmill > 70)

## # A tibble: 118 x 7
##    country    continent  year lifeExp       pop gdpPercap popmill
##    <chr>      <chr>     <dbl>   <dbl>     <dbl>     <dbl>   <dbl>
##  1 Bangladesh Asia       1972    45.3  70759295      630.    70.8
##  2 Bangladesh Asia       1977    46.9  80428306      660.    80.4
##  3 Bangladesh Asia       1982    50.0  93074406      677.    93.1
##  4 Bangladesh Asia       1987    52.8 103764241      752.   104. 
##  5 Bangladesh Asia       1992    56.0 113704579      838.   114. 
##  6 Bangladesh Asia       1997    59.4 123315288      973.   123. 
##  7 Bangladesh Asia       2002    62.0 135656790     1136.   136. 
##  8 Bangladesh Asia       2007    64.1 150448339     1391.   150. 
##  9 Brazil     Americas   1962    55.7  76039390     3337.    76.0
## 10 Brazil     Americas   1967    57.6  88049823     3430.    88.0
## # … with 108 more rows
…
10.1 EXERCISE 1.5

Use the filter() function to return rows matching the given criteria.

A. Which rows have life expectancies of more than 80 years (>80)?

SHOW ANSWER A

filter(gm, lifeExp > 80)

## # A tibble: 21 x 7
##    country          continent  year lifeExp      pop gdpPercap popmill
##    <chr>            <chr>     <dbl>   <dbl>    <dbl>     <dbl>   <dbl>
##  1 Australia        Oceania    2002    80.4 19546792    30688.  19.5  
##  2 Australia        Oceania    2007    81.2 20434176    34435.  20.4  
##  3 Canada           Americas   2007    80.7 33390141    36319.  33.4  
##  4 France           Europe     2007    80.7 61083916    30470.  61.1  
##  5 Hong Kong, China Asia       2002    81.5  6762476    30209.   6.76 
##  6 Hong Kong, China Asia       2007    82.2  6980412    39725.   6.98 
##  7 Iceland          Europe     2002    80.5   288030    31163.   0.288
##  8 Iceland          Europe     2007    81.8   301931    36181.   0.302
##  9 Israel           Asia       2007    80.7  6426679    25523.   6.43 
## 10 Italy            Europe     2002    80.2 57926999    27968.  57.9  
## # … with 11 more rows
…
