Chapter 5 Taming Wild Data | UVA Health Sciences Library Workshops
…
First make new project folder and put the skeleton script and the data files in the project directory

We need to load the readr, dplyr, tidyr, and stringr packages. All of these packages are contained in the tidyverse megapackage. Let’s load those packages now - hopefully you have already installed them. If you get an error loading the package, use the Sticky Notes.

# Load packages
library(tidyverse)

# Read in original dataset
original <- read_csv("data/brauer2007_messy.csv")

# Display the data
original

## # A tibble: 5,536 x 40
##    GID   YORF  NAME  GWEIGHT G0.05  G0.1 G0.15  G0.2 G0.25  G0.3 N0.05
##    <chr> <chr> <chr>   <dbl> <dbl> <dbl> <dbl> <dbl> <dbl> <dbl> <dbl>
##  1 GENE… A_06… SFB2…       1 -0.24 -0.13 -0.21 -0.15 -0.05 -0.05  0.2 
##  2 GENE… A_06… NA::…       1  0.28  0.13 -0.4  -0.48 -0.11  0.17  0.31
##  3 GENE… A_06… QRI7…       1 -0.02 -0.27 -0.27 -0.02  0.24  0.25  0.23
##  4 GENE… A_06… CFT2…       1 -0.33 -0.41 -0.24 -0.03 -0.03  0     0.2 
##  5 GENE… A_06… SSO2…       1  0.05  0.02  0.4   0.34 -0.13 -0.14 -0.35
##  6 GENE… A_06… PSP2…       1 -0.69 -0.03  0.23  0.2   0    -0.27  0.17
##  7 GENE… A_06… RIB2…       1 -0.55 -0.3  -0.12 -0.03 -0.16 -0.11  0.04
##  8 GENE… A_06… VMA1…       1 -0.75 -0.12 -0.07  0.02 -0.32 -0.41  0.11
##  9 GENE… A_06… EDC3…       1 -0.24 -0.22  0.14  0.06  0    -0.13  0.3 
## 10 GENE… A_06… VPS5…       1 -0.16 -0.38  0.05  0.14 -0.04 -0.01  0.39
## # … with 5,526 more rows, and 29 more variables: N0.1 <dbl>, N0.15 <dbl>,
## #   N0.2 <dbl>, N0.25 <dbl>, N0.3 <dbl>, P0.05 <dbl>, P0.1 <dbl>,
## #   P0.15 <dbl>, P0.2 <dbl>, P0.25 <dbl>, P0.3 <dbl>, S0.05 <dbl>,
## #   S0.1 <dbl>, S0.15 <dbl>, S0.2 <dbl>, S0.25 <dbl>, S0.3 <dbl>,
## #   L0.05 <dbl>, L0.1 <dbl>, L0.15 <dbl>, L0.2 <dbl>, L0.25 <dbl>,
## #   L0.3 <dbl>, U0.05 <dbl>, U0.1 <dbl>, U0.15 <dbl>, U0.2 <dbl>,
## #   U0.25 <dbl>, U0.3 <dbl>
…
